{"count":39,"next":"https://api.rawg.io/api/games/9767/achievements?page=2","previous":null,"results":[{"id":1072652,"name":"Heart of Hallownest","description":"Acquire all other trophies","image":"https://media.rawg.io/media/achievements/d0f/d0facfedc8611c7e2aee7e505ab03404.jpg","percent":"1.24"},{"id":104043,"name":"Steel Heart","description":"Achieve 100% game completion and finish the game in Steel Soul mode","image":"https://media.rawg.io/media/achievements/164/16461420940f257f5109d7f5d8524ba9_hLFYuGQ.jpg","percent":"2.03"},{"id":108213,"name":"Steel Soul","description":"Finish the game in Steel Soul mode","image":"https://media.rawg.io/media/achievements/c5a/c5a7b4d18c124bd5b667978159f606f3.jpg","percent":"2.14"},{"id":104044,"name":"Speedrun 2","description":"Complete the game in under 5 hours","image":"https://media.rawg.io/media/achievements/1c7/1c7ea1b55038210c162299994fe7a781.jpg","percent":"2.37"},{"id":108214,"name":"Speed Completion","description":"Achieve 100% game completion and finish the game in under 20 hours","image":"https://media.rawg.io/media/achievements/c48/c48dc508ab4e1ddad158028107e690d2_jeTd4LA.jpg","percent":"2.48"},{"id":112450,"name":"Speedrun 1","description":"Complete the game in under 10 hours","image":"https://media.rawg.io/media/achievements/e98/e98acf1f79eb32abf36d5b1d4c6432a7.jpg","percent":"2.70"},{"id":116373,"name":"Neglect","description":"Leave Zote to die","image":"https://media.rawg.io/media/achievements/276/276ec2b67a7611ef830d637e67efa43f.jpg","percent":"3.44"},{"id":1053383,"name":"Pure Completion","description":"Achieve 112% game completion and finish the game","image":"https://media.rawg.io/media/achievements/337/3374a972090ced5d05cfd75e3cc5bdc0.jpg","percent":"3.94"},{"id":150103,"name":"True Hunter","description":"Receive the Hunter's Mark","image":"https://media.rawg.io/media/achievements/d73/d7383a91135f521875ec38a61aa4490c.jpg","percent":"8.11"},{"id":150104,"name":"Keen Hunter","description":"Record all of Hallownest's creatures in the Hunter's Journal","image":"https://media.rawg.io/media/achievements/d1c/d1cefe5700ffdbf8e73709b56db3fcf6.jpg","percent":"8.68"}]}